<?xml version="1.0" standalone="no"?>
<!DOCTYPE svg PUBLIC "-//W3C//DTD SVG 1.1//EN" "http://www.w3.org/Graphics/SVG/1.1/DTD/svg11.dtd">
<svg xmlns="http://www.w3.org/2000/svg">
<metadata>Copyright (C) 2017 by original authors @ fontello.com</metadata>
<defs>
<font id="fontello" horiz-adv-x="1000" >
<font-face font-family="fontello" font-weight="400" font-stretch="normal" units-per-em="1000" ascent="850" descent="-150" />
<missing-glyph horiz-adv-x="1000" />
<glyph glyph-name="clock" unicode="&#xe800;" d="M406 757c224 0 407-182 407-407 0-223-183-406-407-406-225 0-406 183-406 406 0 225 181 407 406 407z m0-723c175 0 317 143 317 318s-142 316-317 316-317-141-317-316 142-318 317-318z m120 268l-127 0c-14 0-25 5-33 15l-143 156c-39 41 25 101 65 61l130-142 108 0c62 0 55-90 0-90z m-145 287c0 13 12 24 24 24s24-11 24-24-11-24-24-24-24 12-24 24z m167-65c0 13 11 24 23 24s24-11 24-24-11-24-24-24-23 12-23 24z m73-171c0 12 12 24 24 24s24-12 24-24-11-24-24-24-24 11-24 24z m-66-168c0 13 11 24 24 24s24-11 24-24-12-23-24-23-24 11-24 23z m-175-72c0 12 11 24 24 24s24-12 24-24-12-24-24-24-24 11-24 24z m-162 65c0 12 11 24 23 24s24-12 24-24-11-24-24-24-23 11-23 24z m-75 175c0 12 11 24 23 24s24-12 24-24-11-24-24-24-23 11-23 24z" horiz-adv-x="813" />

<glyph glyph-name="pencil" unicode="&#xe801;" d="M938 605q22-22 22-55t-22-55l-570-570q-22-21-60-38t-73-17l-235 0 0 234q0 35 17 74t38 60l570 570q23 22 55 22t55-22z m-794-426l65-64 431 433-64 63z m91-205q14 0 33 8-10 10-27 26t-50 50-56 56l-22 22q-9-21-9-32l0-78 52-52 79 0z m74 40l432 432-63 64-433-431z m469 469l67 67-165 165-67-66z" horiz-adv-x="960" />

<glyph glyph-name="pencil-1" unicode="&#xe802;" d="M0-41q0 4 1 8t1 8 1 8 1 6l0 2 74 267q10 31 31 53l325 324 0 2 2 2 150 152q60 59 146 59 106 0 186-80 74-74 81-171t-58-161l-476-481q-24-23-55-31l-263-70-3-1q-3-1-7-2t-9-1-10-1-9-1q-45 0-77 32t-32 77z m63 0q0-19 13-33t33-14q6 0 22 4l115 32q4 58-43 105-45 45-105 43l-32-119q-3-14-3-18z m44 168q67-2 118-52t52-120l116 30 11 6q41 47 34 115t-61 121q-51 49-115 59t-112-24q-7-10-11-21z m131 225q45-2 90-20l295 295q-88 22-144-33z m119-35q38-20 65-45 21-22 41-55l297 299q-16 31-39 55-30 29-67 45z m122-129q17-41 21-82l0-24 242 245 0 2q61 60 31 156z m101 508q106 0 186-80 70-73 78-166l0-22 52 55q45 45 41 111-5 74-62 131-63 62-143 62-60 0-101-41z" horiz-adv-x="1000" />

<glyph glyph-name="location-outline" unicode="&#xe803;" d="M416 741q-128 0-221-90-91-88-91-216 0-126 91-215l221-219 223 219q90 88 90 215 0 129-90 216-93 90-223 90z m0 104q174 0 295-120t122-290-122-290l-295-290-293 290q-123 120-123 290t123 290 293 120z m0-286q-52 0-91-39t-39-92 39-92q38-37 91-37 55 0 93 37 39 39 39 92t-39 92-93 39z m0 52q75 0 129-53t54-129-54-129-129-54-128 54-54 129 54 129 128 53z" horiz-adv-x="833" />

<glyph glyph-name="location" unicode="&#xe804;" d="M711 725q122-120 122-290t-122-290l-295-290-293 290q-123 120-123 290t123 290 295 120 293-120z m-295-426q55 0 93 37 39 39 39 92t-39 92-93 39q-52 0-91-39t-39-92 39-92q38-37 91-37z" horiz-adv-x="833" />

<glyph glyph-name="phone-outline" unicode="&#xe805;" d="M964 733q31-31 52-74t27-109-12-137-74-163-149-185q-237-237-454-237-134 0-215 81l-93 93q-46 46-46 111t46 110l83 83q46 46 110 46t110-46l72-71 218 216-73 72q-46 47-46 111t46 111l83 82q45 45 111 45 65 0 110-45z m-324-62q-15-15-15-37t15-37l56-56 157 156-57 56q-15 15-36 15-22 0-37-15z m-521-595l57-56 157 156-58 56q-15 15-36 15t-36-15l-84-82q-15-15-15-37t15-37z m615 62q81 82 130 159t64 133 11 105-17 78-32 47l-156-157 15-15q15-15 15-37t-15-36l-291-292q-15-15-37-15-22 0-37 15l-15 17-156-158q50-50 141-50 174 0 380 206z" horiz-adv-x="1044" />

<glyph glyph-name="search" unicode="&#xe806;" d="M772 78q30-34 6-62l-46-46q-36-32-68 0l-190 190q-74-42-156-42-128 0-223 95t-95 223 90 219 218 91 224-95 96-223q0-88-46-162z m-678 358q0-88 68-156t156-68 151 63 63 153q0 88-68 155t-156 67-151-63-63-151z" horiz-adv-x="789" />

<glyph glyph-name="down-open" unicode="&#xe807;" d="M564 422l-234-224q-18-18-40-18t-40 18l-234 224q-16 16-16 41t16 41q38 38 78 0l196-188 196 188q40 38 78 0 16-16 16-41t-16-41z" horiz-adv-x="580" />

<glyph glyph-name="right-open-mini" unicode="&#xe808;" d="M13 180l158 170-158 172q-26 26 0 48 26 26 48 0l192-194q24-26 0-50l-192-194q-22-26-48 0-26 22 0 48z" horiz-adv-x="265" />

<glyph glyph-name="right" unicode="&#xe809;" d="M0 347q0 26 18 43t43 17h642l-242 244q-19 18-19 44t19 42q17 19 42 19t44-19l390-390-390-391q-20-18-44-18t-42 18-19 44 19 43l242 242h-642q-25 0-43 18t-18 44z" horiz-adv-x="938" />

<glyph glyph-name="key" unicode="&#xe80a;" d="M0-88l0 94q0 20 18 39l379 379q-22 57-22 114 0 128 92 220t221 92 220-92 92-220-92-221-220-92q-57 0-114 22l-74-73 0-74q0-25-19-44t-43-18l-63 0 0-63q0-25-19-44t-43-19l-73 0-45-44q-17-18-39-18l-93 0q-26 0-44 19t-19 43z m63 0l87 0 45 45q18 18 45 18l73 0 0 63q0 25 18 43t44 19l63 0 0 74q0 26 17 43l61 61 35 35 10 10q60-35 127-35 103 0 176 73t73 177-73 176-176 73-177-73-73-176q0-67 35-127l-45-45-365-364 0-90z m562 713q0 4 2 10 23 65 88 88 15 6 27-4 74-53 127-127 6-8 6-17 0-4-2-10-23-65-88-88-15-6-27 4-74 53-127 127-6 8-6 17z m31 0q51-70 119-119 51 18 69 69-49 68-119 119-51-18-69-69z" horiz-adv-x="1000" />

<glyph glyph-name="thumbs-up" unicode="&#xe80b;" d="M0-56l0 500q0 39 27 66t67 28l94 0q32 0 60-24 12 6 33 16 123 64 125 226 0 39 28 67t66 27q57 0 105-64t49-147q0-66-8-103 237-6 266-14 43-12 66-43t22-63l0-23q-2-39-27-68 17-34 11-75-7-54-41-86 16-37 0-83-17-59-52-83 7-27 0-54-6-18-14-34-33-60-111-60l-172 0q-92 0-186 21-92 22-127 30l-2 0q0 2-3 2l-4 0 0 2q-28-55-84-55l-94 0q-39 0-67 27t-27 67z m63 0q0-14 8-23t23-9l94 0q13 0 22 9t9 23l0 500q0 13-9 22t-22 9l-94 0q-14 0-23-9t-8-22l0-500z m31 47q0 19 13 33t34 14 33-14 14-33-14-34-33-13-34 13-13 34z m31 0q0-16 16-16t15 16-15 15-16-15z m125 3q0-23 27-27 22-6 145-35 88-20 172-20l172 0q41 0 56 28 6 15 8 23 6 12-2 28t-29 15l-49 0q-16 0-16 16t16 16l51 0q31 0 49 10t22 20 11 30q21 65-39 65l-63 0q-15 0-15 15t15 16l74 0q57 0 69 66 2 22-9 40t-42 19l-61 0q-15 0-15 15t15 16l63 0q61 0 62 45l0 21q0 38-37 47-45 12-337 12 19 59 24 84t5 80q0 57-32 103t-60 45q-31 0-31-31-2-92-46-173t-142-122q-2 0-4-1l-2-1q-25-7-25-33l0-432z" horiz-adv-x="1000" />

<glyph glyph-name="star" unicode="&#xe80c;" d="M4 457q14 41 57 47l262 39 113 235q19 41 64 41t65-41l113-235 262-39q43-6 56-47t-15-70l-192-191 43-264q8-43-29-68-18-14-41-14-18 0-35 8l-227 123-226-123q-18-8-35-8-24 0-41 14-38 25-30 68l43 264-189 191q-32 29-18 70z m69-21l191-191q25-26 19-61l-44-264 226 123q16 8 35 8t35-8l227-123-45 264q-6 35 20 61l191 191-260 37q-39 6-54 41l-114 234-113-234q-16-35-55-39z" horiz-adv-x="1001" />

<glyph glyph-name="heart" unicode="&#xe80d;" d="M0 476q0 122 88 210 84 84 204 86t208-78q88 80 208 78t204-86q88-88 88-210t-88-210q-4-4-346-342-27-27-66-27t-66 27q-2 0-346 342-88 88-88 210z m63 0q0-97 70-165l346-342q21-23 43 0l345 342q70 68 70 165t-70 165q-66 66-160 68t-164-60l-43-39-43 39q-70 62-164 60t-160-68q-70-68-70-165z m93 7q0 55 39 94t94 39q16 0 16-16t-16-16q-41 0-71-29t-30-72q0-16-16-16t-16 16z" horiz-adv-x="1000" />

<glyph glyph-name="home-outline" unicode="&#xe80e;" d="M1108 422q38-30 38-80 0-42-30-73t-75-31l-51 0 0-312q0-44-31-75t-74-30l-625 0q-42 0-73 30t-31 75l0 312-52 0q-44 0-74 31t-30 73q0 46 36 79 79 66 204 174t211 181 88 75l34 29 35-29q1-1 86-75t211-181 203-173z m-430-496l0 260-209 0 0-260 209 0z m207 416l156 0q-231 194-468 400-238-206-469-400l156 0 0-416 156 0 0 312 313 0 0-312 156 0 0 416z" horiz-adv-x="1146" />

<glyph glyph-name="calendar" unicode="&#xe80f;" d="M71-79h161v161h-161v-161z m197 0h178v161h-178v-161z m-197 197h161v178h-161v-178z m197 0h178v178h-178v-178z m-197 214h161v161h-161v-161z m411-411h179v161h-179v-161z m-214 411h178v161h-178v-161z m428-411h161v161h-161v-161z m-214 197h179v178h-179v-178z m-196 482v161q0 7-6 12t-12 6h-36q-7 0-12-6t-6-12v-161q0-7 6-13t12-5h36q7 0 12 5t6 13z m410-482h161v178h-161v-178z m-214 214h179v161h-179v-161z m214 0h161v161h-161v-161z m18 268v161q0 7-5 12t-13 6h-35q-7 0-13-6t-5-12v-161q0-7 5-13t13-5h35q8 0 13 5t5 13z m215 36v-715q0-29-22-50t-50-21h-786q-29 0-50 21t-21 50v715q0 29 21 50t50 21h72v54q0 37 26 63t63 26h36q37 0 63-26t26-63v-54h214v54q0 37 27 63t63 26h35q37 0 64-26t26-63v-54h71q29 0 50-21t22-50z" horiz-adv-x="928.6" />

<glyph glyph-name="trash" unicode="&#xe810;" d="M0 569l0 68q2 37 29 63t65 25l94 0 0 31q0 39 27 67t66 27l313 0q39 0 66-27t28-67l0-31 93 0q37 0 65-25t29-63l0-68q0-26-19-44t-44-19l0-531q0-53-36-89t-88-36l-500 0q-53 0-89 36t-36 89l0 531q-26 0-44 19t-19 44z m63 0l749 0 0 62q0 14-8 23t-23 8l-687 0q-14 0-23-8t-8-23l0-62z m62-594q0-25 19-44t44-19l500 0q25 0 43 19t19 44l0 531-625 0 0-531z m63 31l0 407q0 13 8 22t23 9l62 0q14 0 23-9t9-22l0-407q0-13-9-22t-23-9l-62 0q-14 0-23 9t-8 22z m31 0l62 0 0 407-62 0 0-407z m31 719l375 0 0 31q0 14-9 23t-22 8l-313 0q-13 0-22-8t-9-23l0-31z m125-719l0 407q0 13 9 22t22 9l63 0q13 0 22-9t9-22l0-407q0-13-9-22t-22-9l-63 0q-13 0-22 9t-9 22z m31 0l63 0 0 407-63 0 0-407z m157 0l0 407q0 13 8 22t23 9l62 0q14 0 23-9t9-22l0-407q0-13-9-22t-23-9l-62 0q-14 0-23 9t-8 22z m31 0l62 0 0 407-62 0 0-407z" horiz-adv-x="875" />

<glyph glyph-name="login" unicode="&#xe811;" d="M661 350q0-14-11-25l-303-304q-11-10-26-10t-25 10-10 25v161h-250q-15 0-25 11t-11 25v214q0 15 11 25t25 11h250v161q0 14 10 25t25 10 26-10l303-304q11-10 11-25z m196 196v-392q0-67-47-114t-114-47h-178q-7 0-13 5t-5 13q0 2-1 11t0 15 2 13 5 11 12 3h178q37 0 64 27t26 63v392q0 37-26 64t-64 26h-174t-6 0-6 2-5 3-4 5-1 8q0 2-1 11t0 15 2 13 5 11 12 3h178q67 0 114-47t47-114z" horiz-adv-x="857.1" />

<glyph glyph-name="dot-3" unicode="&#xe812;" d="M110 460q46 0 78-32t32-78q0-44-32-77t-78-33-78 33-32 77q0 46 32 78t78 32z m350 0q46 0 78-32t32-78q0-44-33-77t-77-33-77 33-33 77q0 46 32 78t78 32z m350 0q46 0 78-32t32-78q0-44-32-77t-78-33-78 33-32 77q0 46 32 78t78 32z" horiz-adv-x="920" />

<glyph glyph-name="ok" unicode="&#xe813;" d="M933 534q0-22-16-38l-404-404-76-76q-16-15-38-15t-38 15l-76 76-202 202q-15 16-15 38t15 38l76 76q16 16 38 16t38-16l164-165 366 367q16 16 38 16t38-16l76-76q16-15 16-38z" horiz-adv-x="1000" />

<glyph glyph-name="check" unicode="&#xe814;" d="M786 331v-177q0-67-47-114t-114-47h-464q-67 0-114 47t-47 114v464q0 66 47 113t114 48h464q35 0 65-14 9-4 10-13 2-10-5-16l-27-28q-6-5-13-5-1 0-5 1-13 3-25 3h-464q-37 0-63-26t-27-63v-464q0-37 27-63t63-27h464q37 0 63 27t26 63v141q0 8 5 13l36 35q6 6 13 6 3 0 7-2 11-4 11-16z m129 273l-455-454q-13-14-31-14t-32 14l-240 240q-14 13-14 31t14 32l61 62q14 13 32 13t32-13l147-147 361 361q13 13 31 13t32-13l62-61q13-14 13-32t-13-32z" horiz-adv-x="928.6" />

<glyph glyph-name="ok-1" unicode="&#xe815;" d="M1179 778q-250-222-600-750l-115-179q-144 180-464 500l107 107 286-250q150 150 279 272t206 187 131 111 77 59l21 14q4 0 11-2t26-19 35-50z" horiz-adv-x="1179" />

<glyph glyph-name="eye" unicode="&#xe816;" d="M0 341l0 18q0 1 2 3l0 4q70 130 206 213t290 83 291-83 205-215l1-1 1-1 0-4q2-6 2-8t-2-8l0-4-1-1-1-1q-68-132-205-215t-291-83-290 83-206 215l0 2q-2 2-2 3z m66 9q65-113 183-182t250-68 250 68 183 182q-65 113-183 182t-250 68-250-68-183-182z m213 0q0 90 65 154t154 65 154-65 65-154-65-154-154-65-154 65-65 154z m32 0q0-78 54-133t133-54 133 54 55 133-55 133-133 55-133-55-54-133z m62 0q0 53 37 89t88 36q16 0 16-16t-16-15q-37 0-65-28t-29-66q0-16-15-16t-16 16z" horiz-adv-x="998" />

<glyph glyph-name="up-open" unicode="&#xf005;" d="M0 167q0 26 18 43l391 391 390-391q17-17 17-43 0-26-17-44-18-17-44-17t-43 17l-303 305-305-305q-18-17-43-17t-43 17q-18 18-18 44z" horiz-adv-x="816.9" />

<glyph glyph-name="google" unicode="&#xf1a0;" d="M429 411h404q7-37 7-71 0-121-51-216t-145-149-215-54q-88 0-167 34t-137 91-91 137-34 167 34 167 91 137 137 91 167 34q167 0 287-113l-117-112q-68 67-170 67-72 0-133-37t-97-98-36-136 36-136 97-98 133-37q48 0 89 14t67 33 46 46 28 49 13 43h-243v147z" horiz-adv-x="857.1" />

<glyph glyph-name="balance-scale" unicode="&#xf24e;" d="M964 600l-214-393h429z m-714 0l-214-393h428z m458 107q-8-22-25-40t-40-25v-721h339q8 0 13-5t5-12v-36q0-8-5-13t-13-5h-750q-8 0-13 5t-5 13v36q0 7 5 12t13 5h339v721q-22 8-39 25t-26 40h-274q-8 0-13 5t-5 13v36q0 8 5 13t13 5h274q12 31 39 51t62 20 62-20 39-51h274q8 0 13-5t5-13v-36q0-8-5-13t-13-5h-274z m-101-9q19 0 32 13t13 32-13 31-32 14-31-14-13-31 13-32 31-13z m607-491q0-41-26-73t-65-51-81-27-78-10-78 10-80 27-66 51-26 73q0 6 20 45t51 98 60 109 57 103 31 55q10 19 31 19t32-19q2-4 31-55t57-103 59-109 52-98 19-45z m-714 0q0-41-26-73t-65-51-81-27-78-10-78 10-80 27-66 51-26 73q0 6 20 45t51 98 60 109 57 103 31 55q10 19 31 19t31-19q3-4 32-55t56-103 60-109 52-98 19-45z" horiz-adv-x="1285.7" />

<glyph glyph-name="vimeo" unicode="&#xf306;" d="M896 558q-32-186-171-351t-245-237q-42-28-81-17t-66 38-43 61q-16 32-78 239t-74 223q-16 12-38 5t-44-21l-20-14-36 50q18 20 46 52t100 89 124 67q30 6 53-7t36-35 23-60 15-70 12-75 13-67q14-54 21-80t17-54 18-39 18-11q40 0 126 166 42 76 6 124t-112 2q22 126 140 188 104 54 182 8 80-46 58-174z" horiz-adv-x="901" />

<glyph glyph-name="twitter" unicode="&#xf309;" d="M920 636q-36-54-94-98l0-24q0-130-60-250t-186-203-290-83q-160 0-290 84 14-2 46-2 132 0 234 80-62 2-110 38t-66 94q10-4 34-4 26 0 50 6-66 14-108 66t-42 120l0 2q36-20 84-24-84 58-84 158 0 48 26 94 154-188 390-196-6 18-6 42 0 78 55 133t135 55q82 0 136-58 60 12 120 44-20-66-82-104 56 8 108 30z" horiz-adv-x="920" />

<glyph glyph-name="facebook" unicode="&#xf30c;" d="M500 644l-142 0q-14 0-25-15t-11-37l0-102 178 0 0-148-178 0 0-442-170 0 0 442-152 0 0 148 152 0 0 86q0 94 59 159t147 65l142 0 0-156z" horiz-adv-x="500" />

<glyph glyph-name="linkedin" unicode="&#xf318;" d="M204 698q0-40-29-68t-75-28q-44 0-72 28t-28 68q0 42 28 69t74 27 73-27 29-69z m-198-790l0 618 192 0 0-618-192 0z m306 420q0 86-4 198l166 0 10-86 4 0q60 100 190 100 100 0 161-67t61-199l0-366-192 0 0 342q0 134-98 134-70 0-98-72-6-12-6-48l0-356-194 0 0 420z" horiz-adv-x="900" />
</font>
</defs>
</svg>